#VRML V2.0 utf8

WorldInfo
{
	info ["VRML model created from Acis model"]
	title "Acis model"
}

DEF Stv_20434080507102015 Group
{
	children
	[
		Shape
		{
			appearance Appearance
			{
				material Material
				{
					diffuseColor 0.510 0.510 0.588
				}
			}
			geometry IndexedFaceSet
			{
				creaseAngle 0.5
				coord Coordinate {point [-0.962 -0.852 -0.908, -1.000 -0.852 -0.908, -1.000 -0.852 -1.040, -0.962 -0.852 -1.040]}
				coordIndex [1, 2, 0, -1, 0, 2, 3, -1]
				normal Normal {vector [0.000 -1.000 0.000, 0.000 -1.000 0.000, 0.000 -1.000 0.000, 0.000 -1.000 0.000]}
				solid TRUE
			}
		}
		Shape
		{
			appearance Appearance
			{
				material Material
				{
					diffuseColor 0.510 0.510 0.588
				}
			}
			geometry IndexedFaceSet
			{
				creaseAngle 0.5
				coord Coordinate {point [-1.000 -0.908 -0.908, -0.962 -0.908 -0.908, -0.962 -0.908 -1.040, -1.000 -0.908 -1.040]}
				coordIndex [1, 2, 0, -1, 0, 2, 3, -1]
				normal Normal {vector [0.000 1.000 0.000, 0.000 1.000 0.000, 0.000 1.000 0.000, 0.000 1.000 0.000]}
				solid TRUE
			}
		}
		Shape
		{
			appearance Appearance
			{
				material Material
				{
					diffuseColor 0.510 0.510 0.588
				}
			}
			geometry IndexedFaceSet
			{
				creaseAngle 0.5
				coord Coordinate {point [-0.962 -0.908 -0.852, -1.000 -0.908 -0.852, -1.000 -0.908 -0.720, -0.962 -0.908 -0.720]}
				coordIndex [1, 2, 0, -1, 0, 2, 3, -1]
				normal Normal {vector [0.000 1.000 0.000, 0.000 1.000 0.000, 0.000 1.000 0.000, 0.000 1.000 0.000]}
				solid TRUE
			}
		}
		Shape
		{
			appearance Appearance
			{
				material Material
				{
					diffuseColor 0.510 0.510 0.588
				}
			}
			geometry IndexedFaceSet
			{
				creaseAngle 0.5
				coord Coordinate {point [-0.962 -0.852 -0.720, -0.962 -0.908 -0.720, -1.000 -0.908 -0.720, -1.000 -0.852 -0.720]}
				coordIndex [1, 2, 0, -1, 0, 2, 3, -1]
				normal Normal {vector [-0.000 -0.000 -1.000, -0.000 -0.000 -1.000, -0.000 -0.000 -1.000, -0.000 -0.000 -1.000]}
				solid TRUE
			}
		}
		Shape
		{
			appearance Appearance
			{
				material Material
				{
					diffuseColor 0.510 0.510 0.588
				}
			}
			geometry IndexedFaceSet
			{
				creaseAngle 0.5
				coord Coordinate {point [-0.962 -0.908 -1.040, -0.962 -0.852 -1.040, -1.000 -0.852 -1.040, -1.000 -0.908 -1.040]}
				coordIndex [1, 2, 0, -1, 0, 2, 3, -1]
				normal Normal {vector [0.000 0.000 1.000, 0.000 0.000 1.000, 0.000 0.000 1.000, 0.000 0.000 1.000]}
				solid TRUE
			}
		}
		Shape
		{
			appearance Appearance
			{
				material Material
				{
					diffuseColor 0.510 0.510 0.588
				}
			}
			geometry IndexedFaceSet
			{
				creaseAngle 0.5
				coord Coordinate {point [-1.000 -0.852 -0.852, -0.962 -0.852 -0.852, -0.962 -0.852 -0.720, -1.000 -0.852 -0.720]}
				coordIndex [1, 2, 0, -1, 0, 2, 3, -1]
				normal Normal {vector [0.000 -1.000 0.000, 0.000 -1.000 0.000, 0.000 -1.000 0.000, 0.000 -1.000 0.000]}
				solid TRUE
			}
		}
		Shape
		{
			appearance Appearance
			{
				material Material
				{
					diffuseColor 0.510 0.510 0.588
				}
			}
			geometry IndexedFaceSet
			{
				creaseAngle 0.5
				coord Coordinate {point [-1.000 -0.908 -0.852, -0.962 -0.908 -0.852, -0.962 -1.040 -0.852, -1.000 -1.040 -0.852]}
				coordIndex [0, 1, 3, -1, 3, 1, 2, -1]
				normal Normal {vector [-0.000 -0.000 -1.000, -0.000 -0.000 -1.000, -0.000 -0.000 -1.000, -0.000 -0.000 -1.000]}
				solid TRUE
			}
		}
		Shape
		{
			appearance Appearance
			{
				material Material
				{
					diffuseColor 0.510 0.510 0.588
				}
			}
			geometry IndexedFaceSet
			{
				creaseAngle 0.5
				coord Coordinate {point [-1.000 -0.880 -0.690, -1.000 -0.847 -0.693, -1.000 -0.815 -0.701, -1.000 -0.785 -0.715, -1.000 -0.758 -0.734, -1.000 -0.734 -0.758, -1.000 -0.715 -0.785, -1.000 -0.701 -0.815, -1.000 -0.693 -0.847, -1.000 -0.690 -0.880, -1.000 -0.693 -0.913, -1.000 -0.701 -0.945, -1.000 -0.715 -0.975, -1.000 -0.734 -1.002, -1.000 -0.758 -1.026, -1.000 -0.785 -1.045, -1.000 -0.815 -1.059, -1.000 -0.847 -1.067, -1.000 -0.880 -1.070, -1.000 -0.913 -1.067, -1.000 -0.945 -1.059, -1.000 -0.975 -1.045, -1.000 -1.002 -1.026, -1.000 -1.026 -1.002, -1.000 -1.045 -0.975, -1.000 -1.059 -0.945, -1.000 -1.067 -0.913, -1.000 -1.070 -0.880, -1.000 -1.067 -0.847, -1.000 -1.059 -0.815, -1.000 -1.045 -0.785, -1.000 -1.026 -0.758, -1.000 -1.002 -0.734, -1.000 -0.975 -0.715, -1.000 -0.945 -0.701, -1.000 -0.913 -0.693, -1.000 -0.852 -0.852, -1.000 -0.852 -0.720, -1.000 -0.908 -0.720, -1.000 -0.908 -0.852, -1.000 -1.040 -0.852, -1.000 -1.040 -0.908, -1.000 -0.908 -0.908, -1.000 -0.908 -1.040, -1.000 -0.852 -1.040, -1.000 -0.852 -0.908, -1.000 -0.720 -0.908, -1.000 -0.720 -0.852]}
				coordIndex [1, 37, 0, -1, 0, 37, 38, -1, 0, 38, 35, -1, 35, 38, 34, -1, 34, 38, 33, -1, 33, 38, 39, -1, 33, 39, 32, -1, 32, 39, 31, -1, 31, 39, 30, -1, 30, 39, 40, -1, 30, 40, 29, -1, 29, 40, 28, -1, 28, 40, 27, -1, 27, 40, 41, -1, 27, 41, 26, -1, 26, 41, 25, -1, 25, 41, 24, -1, 24, 41, 42, -1, 24, 42, 23, -1, 23, 42, 22, -1, 22, 42, 21, -1, 21, 42, 43, -1, 21, 43, 20, -1, 20, 43, 19, -1, 19, 43, 18, -1, 18, 43, 44, -1, 18, 44, 17, -1, 17, 44, 16, -1, 16, 44, 15, -1, 15, 44, 45, -1, 15, 45, 14, -1, 14, 45, 13, -1, 13, 45, 12, -1, 12, 45, 46, -1, 12, 46, 11, -1, 11, 46, 10, -1, 10, 46, 9, -1, 9, 46, 47, -1, 9, 47, 8, -1, 8, 47, 7, -1, 7, 47, 6, -1, 6, 47, 36, -1, 6, 36, 5, -1, 5, 36, 4, -1, 4, 36, 3, -1, 3, 36, 37, -1, 3, 37, 2, -1, 2, 37, 1, -1]
				normal Normal {vector [-1.000 0.000 -0.000, -1.000 0.000 -0.000, -1.000 0.000 -0.000, -1.000 0.000 -0.000, -1.000 0.000 -0.000, -1.000 0.000 -0.000, -1.000 0.000 -0.000, -1.000 0.000 -0.000, -1.000 0.000 -0.000, -1.000 0.000 -0.000, -1.000 0.000 -0.000, -1.000 0.000 -0.000, -1.000 0.000 -0.000, -1.000 0.000 -0.000, -1.000 0.000 -0.000, -1.000 0.000 -0.000, -1.000 0.000 -0.000, -1.000 0.000 -0.000, -1.000 0.000 -0.000, -1.000 0.000 -0.000, -1.000 0.000 -0.000, -1.000 0.000 -0.000, -1.000 0.000 -0.000, -1.000 0.000 -0.000, -1.000 0.000 -0.000, -1.000 0.000 -0.000, -1.000 0.000 -0.000, -1.000 0.000 -0.000, -1.000 0.000 -0.000, -1.000 0.000 -0.000, -1.000 0.000 -0.000, -1.000 0.000 -0.000, -1.000 0.000 -0.000, -1.000 0.000 -0.000, -1.000 0.000 -0.000, -1.000 0.000 -0.000, -1.000 0.000 -0.000, -1.000 0.000 -0.000, -1.000 0.000 -0.000, -1.000 0.000 -0.000, -1.000 0.000 -0.000, -1.000 0.000 -0.000, -1.000 0.000 -0.000, -1.000 0.000 -0.000, -1.000 0.000 -0.000, -1.000 0.000 -0.000, -1.000 0.000 -0.000, -1.000 0.000 -0.000]}
				solid TRUE
			}
		}
		Shape
		{
			appearance Appearance
			{
				material Material
				{
					diffuseColor 0.510 0.510 0.588
				}
			}
			geometry IndexedFaceSet
			{
				creaseAngle 0.5
				coord Coordinate {point [-0.962 -0.908 -0.908, -1.000 -0.908 -0.908, -1.000 -1.040 -0.908, -0.962 -1.040 -0.908]}
				coordIndex [0, 1, 3, -1, 3, 1, 2, -1]
				normal Normal {vector [0.000 0.000 1.000, 0.000 0.000 1.000, 0.000 0.000 1.000, 0.000 0.000 1.000]}
				solid TRUE
			}
		}
		Shape
		{
			appearance Appearance
			{
				material Material
				{
					diffuseColor 0.510 0.510 0.588
				}
			}
			geometry IndexedFaceSet
			{
				creaseAngle 0.5
				coord Coordinate {point [-0.962 -0.852 -0.852, -1.000 -0.852 -0.852, -1.000 -0.720 -0.852, -0.962 -0.720 -0.852]}
				coordIndex [0, 1, 3, -1, 3, 1, 2, -1]
				normal Normal {vector [-0.000 -0.000 -1.000, -0.000 -0.000 -1.000, -0.000 -0.000 -1.000, -0.000 -0.000 -1.000]}
				solid TRUE
			}
		}
		Shape
		{
			appearance Appearance
			{
				material Material
				{
					diffuseColor 0.510 0.510 0.588
				}
			}
			geometry IndexedFaceSet
			{
				creaseAngle 0.5
				coord Coordinate {point [-1.000 -0.852 -0.908, -0.962 -0.852 -0.908, -0.962 -0.720 -0.908, -1.000 -0.720 -0.908]}
				coordIndex [0, 1, 3, -1, 3, 1, 2, -1]
				normal Normal {vector [0.000 0.000 1.000, 0.000 0.000 1.000, 0.000 0.000 1.000, 0.000 0.000 1.000]}
				solid TRUE
			}
		}
		Shape
		{
			appearance Appearance
			{
				material Material
				{
					diffuseColor 0.510 0.510 0.588
				}
			}
			geometry IndexedFaceSet
			{
				creaseAngle 0.5
				coord Coordinate {point [-1.000 -1.040 -0.908, -1.000 -1.040 -0.852, -0.962 -1.040 -0.852, -0.962 -1.040 -0.908]}
				coordIndex [0, 1, 3, -1, 3, 1, 2, -1]
				normal Normal {vector [0.000 1.000 0.000, 0.000 1.000 0.000, 0.000 1.000 0.000, 0.000 1.000 0.000]}
				solid TRUE
			}
		}
		Shape
		{
			appearance Appearance
			{
				material Material
				{
					diffuseColor 0.510 0.510 0.588
				}
			}
			geometry IndexedFaceSet
			{
				creaseAngle 0.5
				coord Coordinate {point [-0.962 -0.720 -0.908, -0.962 -0.720 -0.852, -1.000 -0.720 -0.852, -1.000 -0.720 -0.908]}
				coordIndex [0, 1, 3, -1, 3, 1, 2, -1]
				normal Normal {vector [0.000 -1.000 0.000, 0.000 -1.000 0.000, 0.000 -1.000 0.000, 0.000 -1.000 0.000]}
				solid TRUE
			}
		}
		Shape
		{
			appearance Appearance
			{
				material Material
				{
					diffuseColor 0.510 0.510 0.588
				}
			}
			geometry IndexedFaceSet
			{
				creaseAngle 0.5
				coord Coordinate {point [-0.962 -0.852 -0.852, -0.962 -0.720 -0.852, -0.962 -0.720 -0.908, -0.962 -0.852 -0.908, -0.962 -0.852 -1.040, -0.962 -0.908 -1.040, -0.962 -0.908 -0.908, -0.962 -1.040 -0.908, -0.962 -1.040 -0.852, -0.962 -0.908 -0.852, -0.962 -0.908 -0.720, -0.962 -0.852 -0.720]}
				coordIndex [1, 2, 0, -1, 0, 2, 3, -1, 0, 3, 9, -1, 9, 3, 6, -1, 9, 6, 8, -1, 8, 6, 7, -1, 3, 4, 6, -1, 6, 4, 5, -1, 9, 10, 0, -1, 0, 10, 11, -1]
				normal Normal {vector [-1.000 0.000 0.000, -1.000 0.000 0.000, -1.000 0.000 0.000, -1.000 0.000 0.000, -1.000 0.000 0.000, -1.000 0.000 0.000, -1.000 0.000 0.000, -1.000 0.000 0.000, -1.000 0.000 0.000, -1.000 0.000 0.000, -1.000 0.000 0.000, -1.000 0.000 0.000]}
				solid TRUE
			}
		}
		Shape
		{
			appearance Appearance
			{
				material Material
				{
					diffuseColor 0.510 0.510 0.588
				}
			}
			geometry IndexedFaceSet
			{
				creaseAngle 0.5
				coord Coordinate {point [-0.988 -0.880 -0.690, -0.988 -0.847 -0.693, -0.988 -0.815 -0.701, -0.988 -0.785 -0.715, -0.988 -0.758 -0.734, -0.988 -0.734 -0.758, -0.988 -0.715 -0.785, -0.988 -0.701 -0.815, -0.988 -0.693 -0.847, -0.988 -0.690 -0.880, -0.988 -0.693 -0.913, -0.988 -0.701 -0.945, -0.988 -0.715 -0.975, -0.988 -0.734 -1.002, -0.988 -0.758 -1.026, -0.988 -0.785 -1.045, -0.988 -0.815 -1.059, -0.988 -0.847 -1.067, -0.988 -0.880 -1.070, -0.988 -0.913 -1.067, -0.988 -0.945 -1.059, -0.988 -0.975 -1.045, -0.988 -1.002 -1.026, -0.988 -1.026 -1.002, -0.988 -1.045 -0.975, -0.988 -1.059 -0.945, -0.988 -1.067 -0.913, -0.988 -1.070 -0.880, -0.988 -1.067 -0.847, -0.988 -1.059 -0.815, -0.988 -1.045 -0.785, -0.988 -1.026 -0.758, -0.988 -1.002 -0.734, -0.988 -0.975 -0.715, -0.988 -0.945 -0.701, -0.988 -0.913 -0.693, -1.000 -0.880 -0.690, -1.000 -0.913 -0.693, -1.000 -0.945 -0.701, -1.000 -0.975 -0.715, -1.000 -1.002 -0.734, -1.000 -1.026 -0.758, -1.000 -1.045 -0.785, -1.000 -1.059 -0.815, -1.000 -1.067 -0.847, -1.000 -1.070 -0.880, -1.000 -1.067 -0.913, -1.000 -1.059 -0.945, -1.000 -1.045 -0.975, -1.000 -1.026 -1.002, -1.000 -1.002 -1.026, -1.000 -0.975 -1.045, -1.000 -0.945 -1.059, -1.000 -0.913 -1.067, -1.000 -0.880 -1.070, -1.000 -0.847 -1.067, -1.000 -0.815 -1.059, -1.000 -0.785 -1.045, -1.000 -0.758 -1.026, -1.000 -0.734 -1.002, -1.000 -0.715 -0.975, -1.000 -0.701 -0.945, -1.000 -0.693 -0.913, -1.000 -0.690 -0.880, -1.000 -0.693 -0.847, -1.000 -0.701 -0.815, -1.000 -0.715 -0.785, -1.000 -0.734 -0.758, -1.000 -0.758 -0.734, -1.000 -0.785 -0.715, -1.000 -0.815 -0.701, -1.000 -0.847 -0.693]}
				coordIndex [1, 71, 0, -1, 0, 71, 36, -1, 0, 36, 35, -1, 35, 36, 37, -1, 35, 37, 34, -1, 34, 37, 38, -1, 34, 38, 33, -1, 33, 38, 39, -1, 33, 39, 32, -1, 32, 39, 40, -1, 32, 40, 31, -1, 31, 40, 41, -1, 31, 41, 30, -1, 30, 41, 42, -1, 30, 42, 29, -1, 29, 42, 43, -1, 29, 43, 28, -1, 28, 43, 44, -1, 28, 44, 27, -1, 27, 44, 45, -1, 27, 45, 26, -1, 26, 45, 46, -1, 26, 46, 25, -1, 25, 46, 47, -1, 25, 47, 24, -1, 24, 47, 48, -1, 24, 48, 23, -1, 23, 48, 49, -1, 23, 49, 22, -1, 22, 49, 50, -1, 22, 50, 21, -1, 21, 50, 51, -1, 21, 51, 20, -1, 20, 51, 52, -1, 20, 52, 19, -1, 19, 52, 53, -1, 19, 53, 18, -1, 18, 53, 54, -1, 18, 54, 17, -1, 17, 54, 55, -1, 17, 55, 16, -1, 16, 55, 56, -1, 16, 56, 15, -1, 15, 56, 57, -1, 15, 57, 58, -1, 71, 1, 70, -1, 70, 1, 2, -1, 70, 2, 69, -1, 69, 2, 3, -1, 69, 3, 68, -1, 68, 3, 4, -1, 68, 4, 67, -1, 67, 4, 5, -1, 67, 5, 66, -1, 66, 5, 6, -1, 66, 6, 65, -1, 65, 6, 7, -1, 65, 7, 64, -1, 64, 7, 8, -1, 64, 8, 63, -1, 63, 8, 9, -1, 63, 9, 62, -1, 62, 9, 10, -1, 62, 10, 61, -1, 61, 10, 11, -1, 61, 11, 60, -1, 60, 11, 12, -1, 60, 12, 59, -1, 59, 12, 13, -1, 59, 13, 58, -1, 58, 13, 14, -1, 58, 14, 15, -1]
				normal Normal {vector [-0.000 0.000 1.000, -0.000 0.174 0.985, -0.000 0.342 0.940, -0.000 0.500 0.866, -0.000 0.643 0.766, -0.000 0.766 0.643, -0.000 0.866 0.500, -0.000 0.940 0.342, -0.000 0.985 0.174, 0.000 1.000 -0.000, 0.000 0.985 -0.174, 0.000 0.940 -0.342, 0.000 0.866 -0.500, 0.000 0.766 -0.643, 0.000 0.643 -0.766, 0.000 0.500 -0.866, 0.000 0.342 -0.940, 0.000 0.174 -0.985, 0.000 0.000 -1.000, 0.000 -0.174 -0.985, 0.000 -0.342 -0.940, 0.000 -0.500 -0.866, 0.000 -0.643 -0.766, 0.000 -0.766 -0.643, 0.000 -0.866 -0.500, 0.000 -0.940 -0.342, 0.000 -0.985 -0.174, -0.000 -1.000 0.000, -0.000 -0.985 0.174, -0.000 -0.940 0.342, -0.000 -0.866 0.500, -0.000 -0.766 0.643, -0.000 -0.643 0.766, -0.000 -0.500 0.866, -0.000 -0.342 0.940, -0.000 -0.174 0.985, -0.000 0.000 1.000, -0.000 -0.174 0.985, -0.000 -0.342 0.940, -0.000 -0.500 0.866, -0.000 -0.643 0.766, -0.000 -0.766 0.643, -0.000 -0.866 0.500, -0.000 -0.940 0.342, -0.000 -0.985 0.174, -0.000 -1.000 0.000, 0.000 -0.985 -0.174, 0.000 -0.940 -0.342, 0.000 -0.866 -0.500, 0.000 -0.766 -0.643, 0.000 -0.643 -0.766, 0.000 -0.500 -0.866, 0.000 -0.342 -0.940, 0.000 -0.174 -0.985, 0.000 -0.000 -1.000, 0.000 0.174 -0.985, 0.000 0.342 -0.940, 0.000 0.500 -0.866, 0.000 0.643 -0.766, 0.000 0.766 -0.643, 0.000 0.866 -0.500, 0.000 0.940 -0.342, 0.000 0.985 -0.174, 0.000 1.000 -0.000, -0.000 0.985 0.174, -0.000 0.940 0.342, -0.000 0.866 0.500, -0.000 0.766 0.643, -0.000 0.643 0.766, -0.000 0.500 0.866, -0.000 0.342 0.940, -0.000 0.174 0.985]}
				solid TRUE
			}
		}
		Shape
		{
			appearance Appearance
			{
				material Material
				{
					diffuseColor 0.510 0.510 0.588
				}
			}
			geometry IndexedFaceSet
			{
				creaseAngle 0.5
				coord Coordinate {point [-0.880 -0.880 -0.980, -0.880 -0.897 -0.978, -0.880 -0.914 -0.974, -0.880 -0.930 -0.967, -0.880 -0.944 -0.957, -0.880 -0.957 -0.944, -0.880 -0.967 -0.930, -0.880 -0.974 -0.914, -0.880 -0.978 -0.897, -0.880 -0.980 -0.880, -0.880 -0.978 -0.863, -0.880 -0.974 -0.846, -0.880 -0.967 -0.830, -0.880 -0.957 -0.816, -0.880 -0.944 -0.803, -0.880 -0.930 -0.793, -0.880 -0.914 -0.786, -0.880 -0.897 -0.782, -0.880 -0.880 -0.780, -0.880 -0.863 -0.782, -0.880 -0.846 -0.786, -0.880 -0.830 -0.793, -0.880 -0.816 -0.803, -0.880 -0.803 -0.816, -0.880 -0.793 -0.830, -0.880 -0.786 -0.846, -0.880 -0.782 -0.863, -0.880 -0.780 -0.880, -0.880 -0.782 -0.897, -0.880 -0.786 -0.914, -0.880 -0.793 -0.930, -0.880 -0.803 -0.944, -0.880 -0.816 -0.957, -0.880 -0.830 -0.967, -0.880 -0.846 -0.974, -0.880 -0.863 -0.978, -0.988 -0.880 -0.690, -0.988 -0.913 -0.693, -0.988 -0.945 -0.701, -0.988 -0.975 -0.715, -0.988 -1.002 -0.734, -0.988 -1.026 -0.758, -0.988 -1.045 -0.785, -0.988 -1.059 -0.815, -0.988 -1.067 -0.847, -0.988 -1.070 -0.880, -0.988 -1.067 -0.913, -0.988 -1.059 -0.945, -0.988 -1.045 -0.975, -0.988 -1.026 -1.002, -0.988 -1.002 -1.026, -0.988 -0.975 -1.045, -0.988 -0.945 -1.059, -0.988 -0.913 -1.067, -0.988 -0.880 -1.070, -0.988 -0.847 -1.067, -0.988 -0.815 -1.059, -0.988 -0.785 -1.045, -0.988 -0.758 -1.026, -0.988 -0.734 -1.002, -0.988 -0.715 -0.975, -0.988 -0.701 -0.945, -0.988 -0.693 -0.913, -0.988 -0.690 -0.880, -0.988 -0.693 -0.847, -0.988 -0.701 -0.815, -0.988 -0.715 -0.785, -0.988 -0.734 -0.758, -0.988 -0.758 -0.734, -0.988 -0.785 -0.715, -0.988 -0.815 -0.701, -0.988 -0.847 -0.693]}
				coordIndex [1, 53, 0, -1, 0, 53, 54, -1, 0, 54, 55, -1, 53, 1, 52, -1, 52, 1, 2, -1, 52, 2, 51, -1, 51, 2, 3, -1, 51, 3, 50, -1, 50, 3, 4, -1, 50, 4, 49, -1, 49, 4, 5, -1, 49, 5, 48, -1, 48, 5, 6, -1, 48, 6, 47, -1, 47, 6, 7, -1, 47, 7, 46, -1, 46, 7, 8, -1, 46, 8, 45, -1, 45, 8, 9, -1, 45, 9, 44, -1, 44, 9, 10, -1, 44, 10, 43, -1, 43, 10, 11, -1, 43, 11, 42, -1, 42, 11, 12, -1, 42, 12, 41, -1, 41, 12, 13, -1, 41, 13, 40, -1, 40, 13, 14, -1, 40, 14, 39, -1, 39, 14, 15, -1, 39, 15, 38, -1, 38, 15, 16, -1, 38, 16, 37, -1, 37, 16, 17, -1, 37, 17, 36, -1, 36, 17, 18, -1, 36, 18, 71, -1, 71, 18, 19, -1, 71, 19, 20, -1, 71, 20, 70, -1, 70, 20, 21, -1, 70, 21, 69, -1, 69, 21, 22, -1, 69, 22, 68, -1, 68, 22, 23, -1, 68, 23, 67, -1, 67, 23, 66, -1, 66, 23, 24, -1, 66, 24, 25, -1, 66, 25, 65, -1, 65, 25, 26, -1, 65, 26, 64, -1, 64, 26, 27, -1, 64, 27, 63, -1, 63, 27, 28, -1, 63, 28, 62, -1, 62, 28, 29, -1, 62, 29, 61, -1, 61, 29, 30, -1, 61, 30, 60, -1, 60, 30, 31, -1, 60, 31, 59, -1, 59, 31, 32, -1, 59, 32, 58, -1, 58, 32, 33, -1, 58, 33, 57, -1, 57, 33, 34, -1, 57, 34, 56, -1, 56, 34, 35, -1, 56, 35, 55, -1, 55, 35, 0, -1]
				normal Normal {vector [0.640 -0.000 -0.768, 0.640 -0.133 -0.757, 0.640 -0.263 -0.722, 0.640 -0.384 -0.665, 0.640 -0.494 -0.588, 0.640 -0.588 -0.494, 0.640 -0.665 -0.384, 0.640 -0.722 -0.263, 0.640 -0.757 -0.133, 0.640 -0.768 0.000, 0.640 -0.757 0.133, 0.640 -0.722 0.263, 0.640 -0.665 0.384, 0.640 -0.588 0.494, 0.640 -0.494 0.588, 0.640 -0.384 0.665, 0.640 -0.263 0.722, 0.640 -0.133 0.757, 0.640 0.000 0.768, 0.640 0.133 0.757, 0.640 0.263 0.722, 0.640 0.384 0.665, 0.640 0.494 0.588, 0.640 0.588 0.494, 0.640 0.665 0.384, 0.640 0.722 0.263, 0.640 0.757 0.133, 0.640 0.768 0.000, 0.640 0.757 -0.133, 0.640 0.722 -0.263, 0.640 0.665 -0.384, 0.640 0.588 -0.494, 0.640 0.494 -0.588, 0.640 0.384 -0.665, 0.640 0.263 -0.722, 0.640 0.133 -0.757, 0.640 0.000 0.768, 0.640 -0.133 0.757, 0.640 -0.263 0.722, 0.640 -0.384 0.665, 0.640 -0.494 0.588, 0.640 -0.588 0.494, 0.640 -0.665 0.384, 0.640 -0.722 0.263, 0.640 -0.757 0.133, 0.640 -0.768 0.000, 0.640 -0.757 -0.133, 0.640 -0.722 -0.263, 0.640 -0.665 -0.384, 0.640 -0.588 -0.494, 0.640 -0.494 -0.588, 0.640 -0.384 -0.665, 0.640 -0.263 -0.722, 0.640 -0.133 -0.757, 0.640 -0.000 -0.768, 0.640 0.133 -0.757, 0.640 0.263 -0.722, 0.640 0.384 -0.665, 0.640 0.494 -0.588, 0.640 0.588 -0.494, 0.640 0.665 -0.384, 0.640 0.722 -0.263, 0.640 0.757 -0.133, 0.640 0.768 -0.000, 0.640 0.757 0.133, 0.640 0.722 0.263, 0.640 0.665 0.384, 0.640 0.588 0.494, 0.640 0.494 0.588, 0.640 0.384 0.665, 0.640 0.263 0.722, 0.640 0.133 0.757]}
				solid TRUE
			}
		}
		Shape
		{
			appearance Appearance
			{
				material Material
				{
					diffuseColor 0.510 0.510 0.588
				}
			}
			geometry IndexedFaceSet
			{
				creaseAngle 0.5
				coord Coordinate {point [0.975 -0.880 -0.780, 0.975 -0.897 -0.782, 0.975 -0.914 -0.786, 0.975 -0.930 -0.793, 0.975 -0.944 -0.803, 0.975 -0.957 -0.816, 0.975 -0.967 -0.830, 0.975 -0.974 -0.846, 0.975 -0.978 -0.863, 0.975 -0.980 -0.880, 0.975 -0.978 -0.897, 0.975 -0.974 -0.914, 0.975 -0.967 -0.930, 0.975 -0.957 -0.944, 0.975 -0.944 -0.957, 0.975 -0.930 -0.967, 0.975 -0.914 -0.974, 0.975 -0.897 -0.978, 0.975 -0.880 -0.980, 0.975 -0.863 -0.978, 0.975 -0.846 -0.974, 0.975 -0.830 -0.967, 0.975 -0.816 -0.957, 0.975 -0.803 -0.944, 0.975 -0.793 -0.930, 0.975 -0.786 -0.914, 0.975 -0.782 -0.897, 0.975 -0.780 -0.880, 0.975 -0.782 -0.863, 0.975 -0.786 -0.846, 0.975 -0.793 -0.830, 0.975 -0.803 -0.816, 0.975 -0.816 -0.803, 0.975 -0.830 -0.793, 0.975 -0.846 -0.786, 0.975 -0.863 -0.782, 1.000 -0.880 -0.805, 1.000 -0.867 -0.806, 1.000 -0.854 -0.809, 1.000 -0.842 -0.815, 1.000 -0.832 -0.822, 1.000 -0.822 -0.832, 1.000 -0.815 -0.842, 1.000 -0.809 -0.854, 1.000 -0.806 -0.867, 1.000 -0.805 -0.880, 1.000 -0.806 -0.893, 1.000 -0.809 -0.906, 1.000 -0.815 -0.918, 1.000 -0.822 -0.928, 1.000 -0.832 -0.938, 1.000 -0.842 -0.945, 1.000 -0.854 -0.951, 1.000 -0.867 -0.954, 1.000 -0.880 -0.955, 1.000 -0.893 -0.954, 1.000 -0.906 -0.951, 1.000 -0.918 -0.945, 1.000 -0.928 -0.938, 1.000 -0.938 -0.928, 1.000 -0.945 -0.918, 1.000 -0.951 -0.906, 1.000 -0.954 -0.893, 1.000 -0.955 -0.880, 1.000 -0.954 -0.867, 1.000 -0.951 -0.854, 1.000 -0.945 -0.842, 1.000 -0.938 -0.832, 1.000 -0.928 -0.822, 1.000 -0.918 -0.815, 1.000 -0.906 -0.809, 1.000 -0.893 -0.806]}
				coordIndex [1, 71, 0, -1, 0, 71, 36, -1, 0, 36, 35, -1, 35, 36, 37, -1, 35, 37, 34, -1, 34, 37, 38, -1, 34, 38, 33, -1, 33, 38, 39, -1, 33, 39, 32, -1, 32, 39, 40, -1, 32, 40, 31, -1, 31, 40, 41, -1, 31, 41, 30, -1, 30, 41, 42, -1, 30, 42, 29, -1, 29, 42, 43, -1, 29, 43, 28, -1, 28, 43, 44, -1, 28, 44, 27, -1, 27, 44, 45, -1, 27, 45, 26, -1, 26, 45, 46, -1, 26, 46, 25, -1, 25, 46, 47, -1, 25, 47, 24, -1, 24, 47, 48, -1, 24, 48, 23, -1, 23, 48, 49, -1, 23, 49, 22, -1, 22, 49, 50, -1, 22, 50, 21, -1, 21, 50, 51, -1, 21, 51, 20, -1, 20, 51, 52, -1, 20, 52, 19, -1, 19, 52, 53, -1, 19, 53, 18, -1, 18, 53, 54, -1, 18, 54, 17, -1, 17, 54, 55, -1, 17, 55, 16, -1, 16, 55, 56, -1, 16, 56, 15, -1, 15, 56, 57, -1, 15, 57, 14, -1, 14, 57, 58, -1, 14, 58, 13, -1, 13, 58, 59, -1, 13, 59, 12, -1, 12, 59, 60, -1, 12, 60, 11, -1, 11, 60, 61, -1, 11, 61, 10, -1, 10, 61, 62, -1, 10, 62, 9, -1, 9, 62, 63, -1, 9, 63, 8, -1, 8, 63, 64, -1, 8, 64, 7, -1, 7, 64, 65, -1, 7, 65, 6, -1, 6, 65, 66, -1, 6, 66, 5, -1, 5, 66, 67, -1, 5, 67, 4, -1, 4, 67, 68, -1, 4, 68, 3, -1, 3, 68, 69, -1, 3, 69, 2, -1, 2, 69, 70, -1, 2, 70, 1, -1, 1, 70, 71, -1]
				normal Normal {vector [0.707 0.000 0.707, 0.707 -0.123 0.696, 0.707 -0.242 0.664, 0.707 -0.354 0.612, 0.707 -0.455 0.542, 0.707 -0.542 0.455, 0.707 -0.612 0.354, 0.707 -0.664 0.242, 0.707 -0.696 0.123, 0.707 -0.707 0.000, 0.707 -0.696 -0.123, 0.707 -0.664 -0.242, 0.707 -0.612 -0.354, 0.707 -0.542 -0.455, 0.707 -0.455 -0.542, 0.707 -0.354 -0.612, 0.707 -0.242 -0.664, 0.707 -0.123 -0.696, 0.707 -0.000 -0.707, 0.707 0.123 -0.696, 0.707 0.242 -0.664, 0.707 0.354 -0.612, 0.707 0.455 -0.542, 0.707 0.542 -0.455, 0.707 0.612 -0.354, 0.707 0.664 -0.242, 0.707 0.696 -0.123, 0.707 0.707 -0.000, 0.707 0.696 0.123, 0.707 0.664 0.242, 0.707 0.612 0.354, 0.707 0.542 0.455, 0.707 0.455 0.542, 0.707 0.354 0.612, 0.707 0.242 0.664, 0.707 0.123 0.696, 0.707 0.000 0.707, 0.707 0.123 0.696, 0.707 0.242 0.664, 0.707 0.354 0.612, 0.707 0.455 0.542, 0.707 0.542 0.455, 0.707 0.612 0.354, 0.707 0.664 0.242, 0.707 0.696 0.123, 0.707 0.707 -0.000, 0.707 0.696 -0.123, 0.707 0.664 -0.242, 0.707 0.612 -0.354, 0.707 0.542 -0.455, 0.707 0.455 -0.542, 0.707 0.354 -0.612, 0.707 0.242 -0.664, 0.707 0.123 -0.696, 0.707 -0.000 -0.707, 0.707 -0.123 -0.696, 0.707 -0.242 -0.664, 0.707 -0.354 -0.612, 0.707 -0.455 -0.542, 0.707 -0.542 -0.455, 0.707 -0.612 -0.354, 0.707 -0.664 -0.242, 0.707 -0.696 -0.123, 0.707 -0.707 0.000, 0.707 -0.696 0.123, 0.707 -0.664 0.242, 0.707 -0.612 0.354, 0.707 -0.542 0.455, 0.707 -0.455 0.542, 0.707 -0.354 0.612, 0.707 -0.242 0.664, 0.707 -0.123 0.696]}
				solid TRUE
			}
		}
		Shape
		{
			appearance Appearance
			{
				material Material
				{
					diffuseColor 0.510 0.510 0.588
				}
			}
			geometry IndexedFaceSet
			{
				creaseAngle 0.5
				coord Coordinate {point [1.000 -0.880 -0.805, 1.000 -0.893 -0.806, 1.000 -0.906 -0.809, 1.000 -0.918 -0.815, 1.000 -0.928 -0.822, 1.000 -0.938 -0.832, 1.000 -0.945 -0.842, 1.000 -0.951 -0.854, 1.000 -0.954 -0.867, 1.000 -0.955 -0.880, 1.000 -0.954 -0.893, 1.000 -0.951 -0.906, 1.000 -0.945 -0.918, 1.000 -0.938 -0.928, 1.000 -0.928 -0.938, 1.000 -0.918 -0.945, 1.000 -0.906 -0.951, 1.000 -0.893 -0.954, 1.000 -0.880 -0.955, 1.000 -0.867 -0.954, 1.000 -0.854 -0.951, 1.000 -0.842 -0.945, 1.000 -0.832 -0.938, 1.000 -0.822 -0.928, 1.000 -0.815 -0.918, 1.000 -0.809 -0.906, 1.000 -0.806 -0.893, 1.000 -0.805 -0.880, 1.000 -0.806 -0.867, 1.000 -0.809 -0.854, 1.000 -0.815 -0.842, 1.000 -0.822 -0.832, 1.000 -0.832 -0.822, 1.000 -0.842 -0.815, 1.000 -0.854 -0.809, 1.000 -0.867 -0.806]}
				coordIndex [1, 18, 0, -1, 0, 18, 19, -1, 0, 19, 35, -1, 35, 19, 20, -1, 35, 20, 34, -1, 34, 20, 21, -1, 34, 21, 33, -1, 33, 21, 32, -1, 32, 21, 22, -1, 32, 22, 23, -1, 2, 16, 1, -1, 1, 16, 17, -1, 1, 17, 18, -1, 16, 2, 15, -1, 15, 2, 3, -1, 15, 3, 4, -1, 5, 13, 4, -1, 4, 13, 14, -1, 4, 14, 15, -1, 13, 5, 12, -1, 12, 5, 6, -1, 12, 6, 7, -1, 8, 10, 7, -1, 7, 10, 11, -1, 7, 11, 12, -1, 8, 9, 10, -1, 24, 30, 23, -1, 23, 30, 31, -1, 23, 31, 32, -1, 24, 25, 30, -1, 30, 25, 29, -1, 29, 25, 26, -1, 29, 26, 28, -1, 28, 26, 27, -1]
				normal Normal {vector [1.000 -0.000 0.000, 1.000 -0.000 0.000, 1.000 -0.000 0.000, 1.000 -0.000 0.000, 1.000 -0.000 0.000, 1.000 -0.000 0.000, 1.000 -0.000 0.000, 1.000 -0.000 0.000, 1.000 -0.000 0.000, 1.000 -0.000 0.000, 1.000 -0.000 0.000, 1.000 -0.000 0.000, 1.000 -0.000 0.000, 1.000 -0.000 0.000, 1.000 -0.000 0.000, 1.000 -0.000 0.000, 1.000 -0.000 0.000, 1.000 -0.000 0.000, 1.000 -0.000 0.000, 1.000 -0.000 0.000, 1.000 -0.000 0.000, 1.000 -0.000 0.000, 1.000 -0.000 0.000, 1.000 -0.000 0.000, 1.000 -0.000 0.000, 1.000 -0.000 0.000, 1.000 -0.000 0.000, 1.000 -0.000 0.000, 1.000 -0.000 0.000, 1.000 -0.000 0.000, 1.000 -0.000 0.000, 1.000 -0.000 0.000, 1.000 -0.000 0.000, 1.000 -0.000 0.000, 1.000 -0.000 0.000, 1.000 -0.000 0.000]}
				solid TRUE
			}
		}
		Shape
		{
			appearance Appearance
			{
				material Material
				{
					diffuseColor 0.510 0.510 0.588
				}
			}
			geometry IndexedFaceSet
			{
				creaseAngle 0.5
				coord Coordinate {point [0.975 -0.880 -0.780, 0.975 -0.863 -0.782, 0.975 -0.846 -0.786, 0.975 -0.830 -0.793, 0.975 -0.816 -0.803, 0.975 -0.803 -0.816, 0.975 -0.793 -0.830, 0.975 -0.786 -0.846, 0.975 -0.782 -0.863, 0.975 -0.780 -0.880, 0.975 -0.782 -0.897, 0.975 -0.786 -0.914, 0.975 -0.793 -0.930, 0.975 -0.803 -0.944, 0.975 -0.816 -0.957, 0.975 -0.830 -0.967, 0.975 -0.846 -0.974, 0.975 -0.863 -0.978, 0.975 -0.880 -0.980, 0.975 -0.897 -0.978, 0.975 -0.914 -0.974, 0.975 -0.930 -0.967, 0.975 -0.944 -0.957, 0.975 -0.957 -0.944, 0.975 -0.967 -0.930, 0.975 -0.974 -0.914, 0.975 -0.978 -0.897, 0.975 -0.980 -0.880, 0.975 -0.978 -0.863, 0.975 -0.974 -0.846, 0.975 -0.967 -0.830, 0.975 -0.957 -0.816, 0.975 -0.944 -0.803, 0.975 -0.930 -0.793, 0.975 -0.914 -0.786, 0.975 -0.897 -0.782, -0.880 -0.880 -0.980, -0.880 -0.863 -0.978, -0.880 -0.846 -0.974, -0.880 -0.830 -0.967, -0.880 -0.816 -0.957, -0.880 -0.803 -0.944, -0.880 -0.793 -0.930, -0.880 -0.786 -0.914, -0.880 -0.782 -0.897, -0.880 -0.780 -0.880, -0.880 -0.782 -0.863, -0.880 -0.786 -0.846, -0.880 -0.793 -0.830, -0.880 -0.803 -0.816, -0.880 -0.816 -0.803, -0.880 -0.830 -0.793, -0.880 -0.846 -0.786, -0.880 -0.863 -0.782, -0.880 -0.880 -0.780, -0.880 -0.897 -0.782, -0.880 -0.914 -0.786, -0.880 -0.930 -0.793, -0.880 -0.944 -0.803, -0.880 -0.957 -0.816, -0.880 -0.967 -0.830, -0.880 -0.974 -0.846, -0.880 -0.978 -0.863, -0.880 -0.980 -0.880, -0.880 -0.978 -0.897, -0.880 -0.974 -0.914, -0.880 -0.967 -0.930, -0.880 -0.957 -0.944, -0.880 -0.944 -0.957, -0.880 -0.930 -0.967, -0.880 -0.914 -0.974, -0.880 -0.897 -0.978]}
				coordIndex [1, 53, 0, -1, 0, 53, 54, -1, 0, 54, 35, -1, 35, 54, 55, -1, 35, 55, 34, -1, 34, 55, 56, -1, 34, 56, 33, -1, 33, 56, 57, -1, 33, 57, 32, -1, 32, 57, 58, -1, 32, 58, 31, -1, 31, 58, 59, -1, 31, 59, 30, -1, 30, 59, 60, -1, 30, 60, 29, -1, 29, 60, 61, -1, 29, 61, 28, -1, 28, 61, 62, -1, 28, 62, 27, -1, 27, 62, 63, -1, 27, 63, 26, -1, 26, 63, 64, -1, 26, 64, 25, -1, 25, 64, 65, -1, 25, 65, 24, -1, 24, 65, 66, -1, 24, 66, 23, -1, 23, 66, 67, -1, 23, 67, 22, -1, 22, 67, 68, -1, 22, 68, 21, -1, 21, 68, 69, -1, 21, 69, 20, -1, 20, 69, 70, -1, 20, 70, 19, -1, 19, 70, 71, -1, 19, 71, 18, -1, 18, 71, 36, -1, 18, 36, 17, -1, 17, 36, 37, -1, 17, 37, 16, -1, 16, 37, 38, -1, 16, 38, 15, -1, 15, 38, 39, -1, 15, 39, 14, -1, 14, 39, 40, -1, 14, 40, 13, -1, 13, 40, 41, -1, 13, 41, 12, -1, 12, 41, 42, -1, 12, 42, 11, -1, 11, 42, 43, -1, 11, 43, 10, -1, 10, 43, 44, -1, 10, 44, 9, -1, 9, 44, 45, -1, 9, 45, 8, -1, 8, 45, 46, -1, 8, 46, 7, -1, 7, 46, 47, -1, 7, 47, 6, -1, 6, 47, 48, -1, 6, 48, 5, -1, 5, 48, 49, -1, 5, 49, 4, -1, 4, 49, 50, -1, 4, 50, 3, -1, 3, 50, 51, -1, 3, 51, 2, -1, 2, 51, 52, -1, 2, 52, 1, -1, 1, 52, 53, -1]
				normal Normal {vector [-0.000 -0.000 1.000, -0.000 0.174 0.985, -0.000 0.342 0.940, -0.000 0.500 0.866, -0.000 0.643 0.766, -0.000 0.766 0.643, -0.000 0.866 0.500, -0.000 0.940 0.342, -0.000 0.985 0.174, 0.000 1.000 -0.000, 0.000 0.985 -0.174, 0.000 0.940 -0.342, 0.000 0.866 -0.500, 0.000 0.766 -0.643, 0.000 0.643 -0.766, 0.000 0.500 -0.866, 0.000 0.342 -0.940, 0.000 0.174 -0.985, 0.000 -0.000 -1.000, 0.000 -0.174 -0.985, 0.000 -0.342 -0.940, 0.000 -0.500 -0.866, 0.000 -0.643 -0.766, 0.000 -0.766 -0.643, 0.000 -0.866 -0.500, 0.000 -0.940 -0.342, 0.000 -0.985 -0.174, -0.000 -1.000 0.000, -0.000 -0.985 0.174, -0.000 -0.940 0.342, -0.000 -0.866 0.500, -0.000 -0.766 0.643, -0.000 -0.643 0.766, -0.000 -0.500 0.866, -0.000 -0.342 0.940, -0.000 -0.174 0.985, 0.000 -0.000 -1.000, 0.000 0.174 -0.985, 0.000 0.342 -0.940, 0.000 0.500 -0.866, 0.000 0.643 -0.766, 0.000 0.766 -0.643, 0.000 0.866 -0.500, 0.000 0.940 -0.342, 0.000 0.985 -0.174, -0.000 1.000 0.000, -0.000 0.985 0.174, -0.000 0.940 0.342, -0.000 0.866 0.500, -0.000 0.766 0.643, -0.000 0.643 0.766, -0.000 0.500 0.866, -0.000 0.342 0.940, -0.000 0.174 0.985, -0.000 -0.000 1.000, -0.000 -0.174 0.985, -0.000 -0.342 0.940, -0.000 -0.500 0.866, -0.000 -0.643 0.766, -0.000 -0.766 0.643, -0.000 -0.866 0.500, -0.000 -0.940 0.342, -0.000 -0.985 0.174, -0.000 -1.000 0.000, 0.000 -0.985 -0.174, 0.000 -0.940 -0.342, 0.000 -0.866 -0.500, 0.000 -0.766 -0.643, 0.000 -0.643 -0.766, 0.000 -0.500 -0.866, 0.000 -0.342 -0.940, 0.000 -0.174 -0.985]}
				solid TRUE
			}
		}
	]
}

NavigationInfo
{
	headlight TRUE
	type "EXAMINE"
}

