Name,Mass (kg),Propellant (kg),Speed (km/hr)
Sojourner,11.5,,0.036
Canadian rover,40,,0.72
Mars Exploration Rover,185,50,0.18
Lunar Roving Vehicle,210,,9.7
Zhurong,240,,0.2
Rosalind Franklin,310,,
VIPER,430,,0.8
Curiosity,899,,0.14
Perseverance,1025,,0.12
