<?xml version="1.0" encoding="UTF-8" standalone="no"?>
<!-- Created with Inkscape (http://www.inkscape.org/) -->

<svg
   xmlns:dc="http://purl.org/dc/elements/1.1/"
   xmlns:cc="http://creativecommons.org/ns#"
   xmlns:rdf="http://www.w3.org/1999/02/22-rdf-syntax-ns#"
   xmlns:svg="http://www.w3.org/2000/svg"
   xmlns="http://www.w3.org/2000/svg"
   xmlns:sodipodi="http://sodipodi.sourceforge.net/DTD/sodipodi-0.dtd"
   xmlns:inkscape="http://www.inkscape.org/namespaces/inkscape"
   width="106.08014mm"
   height="436.16599mm"
   viewBox="0 0 375.8745 1545.47"
   id="svg2"
   version="1.1"
   inkscape:version="0.91 r"
   sodipodi:docname="lights-white.svg">
  <defs
     id="defs4" />
  <sodipodi:namedview
     id="base"
     pagecolor="#ffffff"
     bordercolor="#666666"
     borderopacity="1.0"
     inkscape:pageopacity="0.0"
     inkscape:pageshadow="2"
     inkscape:zoom="1.2602041"
     inkscape:cx="237.4488"
     inkscape:cy="1297.1585"
     inkscape:document-units="px"
     inkscape:current-layer="layer8"
     showgrid="false"
     fit-margin-top="0"
     fit-margin-left="0"
     fit-margin-right="0"
     fit-margin-bottom="0" />
  <metadata
     id="metadata7">
    <rdf:RDF>
      <cc:Work
         rdf:about="">
        <dc:format>image/svg+xml</dc:format>
        <dc:type
           rdf:resource="http://purl.org/dc/dcmitype/StillImage" />
        <dc:title></dc:title>
      </cc:Work>
    </rdf:RDF>
  </metadata>
  <g
     inkscape:groupmode="layer"
     id="layer8"
     inkscape:label="Lights White"
     style="display:inline">
    <rect
       transform="translate(-291.36858,271.97777)"
       style="color:#000000;display:inline;overflow:visible;visibility:visible;fill:#ecedf8;fill-opacity:1;fill-rule:evenodd;stroke:none;stroke-width:0.75;stroke-linecap:butt;stroke-linejoin:miter;stroke-miterlimit:4;stroke-dasharray:none;stroke-dashoffset:0;stroke-opacity:1;marker:none;enable-background:accumulate"
       id="rect4849-3"
       width="99.470299"
       height="30.111759"
       x="514.53552"
       y="496.91696"
       rx="3.2514784"
       ry="3.2514784" />
    <rect
       transform="translate(-291.36858,271.97777)"
       style="color:#000000;display:inline;overflow:visible;visibility:visible;fill:#ecedf8;fill-opacity:1;fill-rule:evenodd;stroke:none;stroke-width:0.75;stroke-linecap:butt;stroke-linejoin:miter;stroke-miterlimit:4;stroke-dasharray:none;stroke-dashoffset:0;stroke-opacity:1;marker:none;enable-background:accumulate"
       id="rect4849-3-5"
       width="99.470299"
       height="30.111759"
       x="292.04175"
       y="-27.614031"
       rx="3.2514784"
       ry="3.2514784" />
    <rect
       transform="translate(-291.36858,271.97777)"
       style="color:#000000;display:inline;overflow:visible;visibility:visible;fill:#ecedf8;fill-opacity:1;fill-rule:evenodd;stroke:none;stroke-width:0.75;stroke-linecap:butt;stroke-linejoin:miter;stroke-miterlimit:4;stroke-dasharray:none;stroke-dashoffset:0;stroke-opacity:1;marker:none;enable-background:accumulate"
       id="rect4849-3-55"
       width="99.470299"
       height="30.111759"
       x="291.85193"
       y="883.81311"
       rx="3.2514784"
       ry="3.2514784" />
  </g>
</svg>
