<?xml version="1.0" encoding="UTF-8" standalone="no"?>
<!DOCTYPE svg PUBLIC "-//W3C//DTD SVG 20010904//EN"
              "http://www.w3.org/TR/2001/REC-SVG-20010904/DTD/svg10.dtd">

<svg xmlns="http://www.w3.org/2000/svg"
     width="11.3611in" height="7.43056in"
     viewBox="0 0 818 535">
  <path id="Selection"
        fill="none" stroke="black" stroke-width="1"
        d="M 450.00,34.73
           C 453.90,35.29 463.85,36.44 466.91,38.16
             470.30,40.07 475.09,46.75 478.17,49.83
             478.17,49.83 485.00,55.86 485.00,55.86
             496.95,65.84 507.82,69.54 523.00,71.16
             526.51,71.54 528.23,72.12 532.00,71.80
             537.17,71.61 542.89,69.98 548.00,71.80
             551.71,72.95 560.51,79.96 564.00,82.65
             577.06,92.72 588.91,104.27 599.39,117.00
             602.81,121.16 612.78,133.49 614.30,138.00
             615.09,140.34 615.04,143.53 614.99,146.00
             614.99,146.00 614.18,155.00 614.18,155.00
             614.18,155.00 614.91,162.00 614.91,162.00
             615.61,172.06 616.24,176.63 620.64,186.00
             625.31,195.95 629.32,200.35 637.00,208.00
             637.00,208.00 647.27,218.09 647.27,218.09
             649.00,220.66 649.61,224.93 650.20,228.00
             650.20,228.00 653.00,252.00 653.00,252.00
             653.18,267.72 653.49,283.41 651.27,299.00
             650.72,302.86 649.58,312.83 647.84,315.83
             646.01,318.99 640.02,323.32 637.17,326.17
             629.93,333.40 623.49,341.47 619.60,351.00
             615.49,361.11 615.79,363.76 614.66,374.00
             614.57,376.83 614.10,377.96 614.66,381.00
             614.66,381.00 614.66,388.00 614.66,388.00
             615.04,390.26 615.10,393.89 614.66,396.00
             613.12,400.76 604.93,410.83 601.60,415.00
             588.76,431.05 568.60,450.93 551.00,461.60
             543.49,466.16 538.82,462.79 531.00,463.04
             520.36,463.38 509.74,464.81 500.00,469.31
             491.73,473.12 484.59,478.85 478.09,485.17
             474.66,488.50 470.82,494.40 466.91,496.55
             463.52,498.41 454.16,499.55 450.00,500.13
             435.16,502.19 420.95,502.17 406.00,502.00
             406.00,502.00 381.00,499.25 381.00,499.25
             378.25,498.80 372.39,498.09 370.17,496.83
             367.33,495.22 363.99,490.55 361.71,488.01
             359.12,485.13 353.11,479.88 350.00,477.32
             342.44,471.11 330.74,465.69 321.00,464.11
             321.00,464.11 313.00,464.11 313.00,464.11
             309.12,463.65 307.29,462.85 303.00,463.29
             298.69,463.34 294.32,464.73 290.00,463.29
             285.44,462.18 275.97,454.57 272.00,451.40
             258.74,440.81 247.66,430.24 237.00,417.00
             231.72,410.44 222.33,400.64 222.02,392.00
             222.02,392.00 222.82,380.00 222.82,380.00
             222.82,380.00 222.09,373.00 222.09,373.00
             221.18,360.02 219.10,351.05 211.64,340.00
             209.35,336.60 201.92,327.96 198.96,325.17
             195.84,322.22 190.45,318.74 188.70,314.91
             187.47,312.22 186.22,302.42 185.73,299.00
             183.55,283.73 183.82,268.40 184.00,253.00
             184.00,253.00 186.75,229.00 186.75,229.00
             187.31,225.61 187.81,220.94 189.73,218.09
             189.73,218.09 200.72,207.58 200.72,207.58
             206.68,201.71 213.15,193.68 216.56,186.00
             220.83,176.39 222.32,166.42 222.87,156.00
             223.24,150.16 220.71,143.63 222.87,138.00
             224.42,133.83 232.96,122.79 236.08,119.00
             248.20,104.30 257.11,95.49 272.00,83.60
             280.10,77.13 286.20,70.77 297.00,71.01
             297.00,71.01 307.00,71.92 307.00,71.92
             316.46,71.92 328.35,69.40 337.00,65.56
             344.53,62.22 353.03,55.64 358.83,49.83
             361.91,46.75 366.70,40.07 370.09,38.16
             374.69,35.57 392.78,34.31 399.00,33.42
             410.91,31.97 437.88,33.00 450.00,34.73 Z" />
</svg>
