<?xml version="1.0" encoding="UTF-8" standalone="no"?>
<svg
   xmlns:dc="http://purl.org/dc/elements/1.1/"
   xmlns:cc="http://creativecommons.org/ns#"
   xmlns:rdf="http://www.w3.org/1999/02/22-rdf-syntax-ns#"
   xmlns:svg="http://www.w3.org/2000/svg"
   xmlns="http://www.w3.org/2000/svg"
   xmlns:xlink="http://www.w3.org/1999/xlink"
   xmlns:sodipodi="http://sodipodi.sourceforge.net/DTD/sodipodi-0.dtd"
   xmlns:inkscape="http://www.inkscape.org/namespaces/inkscape"
   width="25"
   height="33"
   viewBox="0 0 25 33"
   version="1.1"
   id="svg14"
   sodipodi:docname="edible-library.svg"
   inkscape:version="0.92.2 (unknown)">
  <metadata
     id="metadata18">
    <rdf:RDF>
      <cc:Work
         rdf:about="">
        <dc:format>image/svg+xml</dc:format>
        <dc:type
           rdf:resource="http://purl.org/dc/dcmitype/StillImage" />
        <dc:title>Edible Symbols</dc:title>
      </cc:Work>
    </rdf:RDF>
  </metadata>
  <sodipodi:namedview
     pagecolor="#ffffff"
     bordercolor="#666666"
     borderopacity="1"
     objecttolerance="10"
     gridtolerance="10"
     guidetolerance="10"
     inkscape:pageopacity="0"
     inkscape:pageshadow="2"
     inkscape:window-width="640"
     inkscape:window-height="480"
     id="namedview16"
     showgrid="false"
     inkscape:zoom="29.181818"
     inkscape:cx="5.2180685"
     inkscape:cy="16.362928"
     inkscape:current-layer="svg14" />
  <title
     id="title2">Edible Symbols</title>
  <defs
     id="defs12">
    <symbol
       id="edible-icon">
      <title
         id="title4">Pear</title>
      <path
         id="edible-path"
         class="edible-icon"
         style="stroke:none"
         d="M 25,1.8759114e-6 C 25,1.8759114e-6 24.585819,2.1772726 20.215962,2.7535607 12.552389,3.7642263 13.423785,7.8480358 13.423785,7.8480358 L 14.406917,7.3532557 C 14.004328,7.5017724 13.15481,8.4930756 12.40476,9.4477594 12.308807,9.4238722 12.220197,9.3958608 12.117598,9.3754004 8.7889288,8.7115861 8.0035827,11.098288 7.0444042,13.261282 5.3476919,17.088261 0.51759598,19.594427 0.06278086,23.743579 -0.46164737,28.527816 2.3305993,31.762026 7.2717408,32.747405 12.21288,33.732783 16.06938,31.823907 17.491912,27.218774 c 1.2337,-3.993826 -2.213555,-8.149671 -2.251428,-12.322567 -0.01971,-2.15372 0.158491,-4.418299 -2.343162,-5.3017735 0.368479,-0.547875 0.731865,-0.9836933 0.731865,-0.9836933 0.834742,0.8239046 2.805811,0.8115959 2.805811,0.8115959 C 23.591522,9.8895698 25,1.8759114e-6 25,1.8759114e-6 Z" />
    </symbol>
    <symbol
       id="edible-icon-2">
      <title
         id="title8">Apple</title>
      <path
         id="edible-path-2"
         class="edible-icon"
         style="stroke:none"
         d="m 12.168993,11.920858 c 0,0 2.314068,-3.7835667 3.06364,-4.1115923 l -0.913186,0.5359689 c 0,0 -0.989265,-4.0876437 6.247363,-5.3907715 C 24.69321,2.2114054 25,-5.5317599e-8 25,-5.5317599e-8 25,-5.5317599e-8 24.054765,10.026505 17.240853,9.8202081 c 0,0 -1.87182,0.085549 -2.697179,-0.7146077 0,0 -1.271256,1.7390216 -1.306148,2.6765386 m -1.068535,0.138727 c 0,0 -2.6104646,-0.418747 -4.9087429,-0.737745 -2.6042809,-0.361535 -4.5881363,0.867917 -6.0340855,2.90124 -1.79225879,2.555277 -1.33437717,5.466266 -0.42916411,8.217311 1.04138121,3.165118 3.03411991,10.539607 7.18111111,10.696175 0.8648547,0.04641 1.7142952,-0.671906 2.5717834,-0.762293 1.195359,0.881931 2.426485,0.893865 3.895006,-0.01542 0.863448,0.175291 1.743735,0.745202 2.619283,0.741738 4.12147,-0.01631 7.754603,-11.348961 7.688822,-14.86489 -0.100359,-5.35443 -4.589988,-7.425729 -7.280524,-6.99418 l -4.234954,0.679344" />
    </symbol>
  </defs>
</svg>
